{
  "applicationName": "TestApp1",
  "applicationId": "com.mycompany.myAppID",
  "versionString": "1.0",
  "versionCode": "1",
  "icon": {
    "57": "resources/icons/Icon.png",
    "72": "resources/icons/Icon~ipad.png",
    "114": "resources/icons/Icon@2x.png",
    "144": "resources/icons/Icon~ipad@2x.png"
  },
  "inputPath": "C:\\Users\\besitzer\\Desktop\\USBWebserver v8.5\\USBWebserver v8.5\\8.5\\root\\TestApp1\\build\\TestApp1\\package",
  "outputPath": "C:\\Users\\besitzer\\Desktop\\USBWebserver v8.5\\USBWebserver v8.5\\8.5\\root\\TestApp1\\build\\TestApp1\\native",
  "configuration": "Debug",
  "platform": "AndroidEmulator",
  "deviceType": "Universal",
  "sdkPath": "D:/Program Files (x86)/Android/android-sdk",
  "androidAPILevel": "8",
  "permissions": [
    "INTERNET",
    "ACCESS_NETWORK_STATE",
    "CAMERA",
    "VIBRATE",
    "ACCESS_FINE_LOCATION",
    "ACCESS_COARSE_LOCATION",
    "CALL_PHONE"
  ],
  "orientations": [
    "portrait",
    "landscapeLeft",
    "landscapeRight",
    "portraitUpsideDown"
  ]
}